# Blender MTL File: 'None'
# Material Count: 1

newmtl Mesh_0013.rip
Ns 94.117647
Ka 1.000000 1.000000 1.000000
Kd 0.640000 0.640000 0.640000
Ks 0.000000 0.000000 0.000000
Ke 0.000000 0.000000 0.000000
Ni 1.000000
d 1.000000
illum 1
map_Kd Tex_0012_0.png
