# Blender v2.64 (sub 1) OBJ File: ''
# www.blender.org
mtllib kart_KA_b.mtl
o polygon1
v -0.230225 0.016113 -0.368896
v -0.230225 0.016113 -0.289307
v -0.230225 0.055908 -0.408447
v -0.230225 0.055908 -0.249756
v -0.230225 0.135254 -0.408447
v -0.230225 0.135254 -0.249756
v -0.230225 0.175049 -0.368896
v -0.230225 0.175049 -0.289307
v -0.230225 0.016113 0.319824
v -0.230225 0.016113 0.399170
v -0.230225 0.055908 0.280273
v -0.230225 0.055908 0.438965
v -0.230225 0.135254 0.280273
v -0.230225 0.135254 0.438965
v -0.230225 0.175049 0.319824
v -0.230225 0.175049 0.399170
v 0.230225 0.175049 -0.368896
v 0.230225 0.175049 -0.289307
v 0.230225 0.135254 -0.408447
v 0.230225 0.135254 -0.249756
v 0.230225 0.055908 -0.408447
v 0.230225 0.055908 -0.249756
v 0.230225 0.016113 -0.368896
v 0.230225 0.016113 -0.289307
v 0.230225 0.175049 0.319824
v 0.230225 0.175049 0.399170
v 0.230225 0.135254 0.280273
v 0.230225 0.135254 0.438965
v 0.230225 0.055908 0.280273
v 0.230225 0.055908 0.438965
v 0.230225 0.016113 0.319824
v 0.230225 0.016113 0.399170
vt 1.396484 -0.916016
vt 1.605469 -0.916016
vt 1.292969 -0.708984
vt 1.708984 -0.708984
vt 1.292969 -0.294922
vt 1.708984 -0.294922
vt 1.396484 -0.087891
vt 1.605469 -0.087891
usemtl kart_tire
s off
f 1/1 2/2 3/3
f 2/2 4/4 3/3
f 3/3 4/4 5/5
f 4/4 6/6 5/5
f 5/5 6/6 7/7
f 6/6 8/8 7/7
f 9/1 10/2 11/3
f 10/2 12/4 11/3
f 11/3 12/4 13/5
f 12/4 14/6 13/5
f 13/5 14/6 15/7
f 14/6 16/8 15/7
f 17/7 18/8 19/5
f 18/8 20/6 19/5
f 19/5 20/6 21/3
f 20/6 22/4 21/3
f 21/3 22/4 23/1
f 22/4 24/2 23/1
f 25/7 26/8 27/5
f 26/8 28/6 27/5
f 27/5 28/6 29/3
f 28/6 30/4 29/3
f 29/3 30/4 31/1
f 30/4 32/2 31/1
o polygon0
v 0.066895 0.409424 -0.092529
v 0.092285 0.394043 -0.114014
v 0.076660 0.539795 -0.046387
v 0.105957 0.564209 -0.053711
v 0.000000 0.562012 -0.038818
v 0.000000 0.599609 -0.041260
v -0.076660 0.539795 -0.046387
v -0.105957 0.564209 -0.053711
v -0.066895 0.409424 -0.092529
v -0.092285 0.394043 -0.114014
v 0.092285 0.394043 -0.114014
v 0.066895 0.409424 -0.092529
v 0.105957 0.564209 -0.053711
v 0.076660 0.539795 -0.046387
v 0.000000 0.599609 -0.041260
v 0.000000 0.562012 -0.038818
v -0.105957 0.564209 -0.053711
v -0.076660 0.539795 -0.046387
v -0.092285 0.394043 -0.114014
v -0.066895 0.409424 -0.092529
v -0.028564 0.360840 0.164551
v -0.066895 0.385742 0.080078
v 0.000000 0.323486 0.164551
v 0.000000 0.298340 0.080078
v 0.028564 0.360840 0.164551
v 0.066895 0.385742 0.080078
v -0.028564 0.360840 0.164551
v -0.066895 0.385742 0.080078
v -0.041748 0.369873 0.685059
v -0.041748 0.369873 0.762695
v 0.041748 0.369873 0.685059
v 0.041748 0.369873 0.762695
v 0.000000 0.315185 0.685059
v 0.000000 0.315185 0.762695
v -0.041748 0.369873 0.685059
v -0.041748 0.369873 0.762695
v -0.028564 0.360840 0.164551
v -0.028564 0.360840 0.636719
v 0.028564 0.360840 0.164551
v 0.028564 0.360840 0.636719
v 0.000000 0.323486 0.164551
v 0.000000 0.323486 0.636719
v -0.028564 0.360840 0.164551
v -0.028564 0.360840 0.636719
v 0.059326 0.380859 0.699707
v 0.028564 0.360840 0.636719
v -0.059326 0.380859 0.699707
v -0.028564 0.360840 0.636719
v 0.000000 0.303223 0.699707
v 0.000000 0.323486 0.636719
v 0.059326 0.380859 0.699707
v 0.028564 0.360840 0.636719
v -0.157959 0.471191 0.069580
v 0.157959 0.471191 0.069580
v -0.265625 0.379150 0.002441
v 0.265625 0.379150 0.002441
v -0.265625 0.379150 -0.625000
v 0.265625 0.379150 -0.625000
v 0.225098 0.108399 -0.449707
v 0.225098 0.206787 -0.411133
v 0.076904 0.108398 0.052979
v 0.225098 0.206787 0.435547
v 0.225098 0.108398 0.486084
v -0.225098 0.108398 0.486084
v -0.225098 0.206787 0.435547
v -0.076904 0.108398 0.052979
v -0.225098 0.206787 -0.411133
v -0.225098 0.108399 -0.449707
v -0.287598 0.253174 -0.042969
v -0.244385 0.253174 0.135986
v -0.265625 0.379150 0.002441
v -0.157959 0.471191 0.069580
v 0.157959 0.471191 0.069580
v 0.244385 0.253174 0.135986
v 0.265625 0.379150 0.002441
v 0.287598 0.253174 -0.042969
v 0.265625 0.379150 0.002441
v 0.287598 0.253174 -0.042969
v 0.265625 0.379150 -0.625000
v 0.265625 0.253174 -0.625000
v -0.265625 0.379150 0.002441
v -0.265625 0.379150 -0.625000
v -0.287598 0.253174 -0.042969
v -0.265625 0.253174 -0.625000
v 0.225098 0.108399 -0.449707
v 0.076904 0.108398 0.052979
v 0.225098 0.003418 -0.415771
v 0.225098 0.003418 0.438721
v -0.225098 0.108398 0.486084
v -0.076904 0.108398 0.052979
v -0.225098 0.003418 0.438721
v -0.225098 0.003418 -0.415771
v -0.119629 0.069092 0.500977
v 0.119629 0.069092 0.500977
v 0.119629 0.135742 0.525879
v -0.119629 0.135742 0.525879
v -0.119629 0.193115 0.439697
v -0.119629 0.012695 0.411865
v -0.119629 0.069092 0.500977
v -0.119629 0.135742 0.525879
v -0.119629 0.012695 -0.385010
v 0.119629 0.012695 -0.385010
v 0.119629 0.012695 0.411865
v -0.119629 0.012695 0.411865
v -0.119629 0.193115 -0.427490
v 0.119629 0.193115 -0.427490
v 0.119629 0.012695 -0.385010
v -0.119629 0.012695 -0.385010
v -0.119629 0.012695 0.411865
v 0.119629 0.012695 0.411865
v 0.119629 0.069092 0.500977
v -0.119629 0.069092 0.500977
v -0.237549 0.036377 -0.234619
v -0.237549 0.036377 0.270264
v -0.237549 0.195312 0.270264
v -0.237549 0.195313 -0.234619
v -0.125488 0.003418 -0.415771
v -0.125488 0.003418 0.438721
v -0.225098 0.003418 0.438721
v -0.225098 0.003418 -0.415771
v -0.265625 0.379150 -0.625000
v 0.265625 0.379150 -0.625000
v 0.265625 0.253174 -0.625000
v -0.265625 0.253174 -0.625000
v -0.125488 0.206787 -0.411133
v -0.125488 0.108399 -0.449707
v -0.225098 0.108399 -0.449707
v -0.225098 0.206787 -0.411133
v -0.125488 0.108398 0.486084
v -0.125488 0.206787 0.435547
v -0.225098 0.206787 0.435547
v -0.225098 0.108398 0.486084
v 0.265625 0.253174 -0.625000
v 0.244385 0.193115 -0.427490
v -0.244385 0.193115 -0.427490
v -0.265625 0.253174 -0.625000
v -0.244385 0.193115 0.447754
v -0.244385 0.193115 -0.427490
v -0.291016 0.151123 -0.427490
v -0.291016 0.151123 0.447754
v 0.291016 0.151123 0.447754
v 0.244385 0.193115 0.447754
v 0.244385 0.193115 -0.427490
v 0.291016 0.151123 -0.427490
v -0.244385 0.193115 0.447754
v -0.291016 0.151123 0.447754
v -0.291016 0.151123 -0.427490
v -0.244385 0.193115 -0.427490
v -0.244385 0.193115 0.447754
v 0.244385 0.193115 0.447754
v 0.244385 0.135742 0.533936
v -0.244385 0.135742 0.533936
v 0.244385 0.193115 0.447754
v -0.244385 0.193115 0.447754
v -0.244385 0.193115 -0.427490
v 0.244385 0.193115 -0.427490
v -0.114258 0.086914 -0.569580
v 0.114258 0.086914 -0.569580
v 0.114258 0.086914 -0.421875
v -0.114258 0.086914 -0.421875
v 0.114258 0.086914 -0.421875
v 0.114258 0.086914 -0.569580
v 0.114258 0.195557 -0.569580
v 0.114258 0.195557 -0.421875
v -0.114258 0.086914 -0.569580
v -0.114258 0.086914 -0.421875
v -0.114258 0.195557 -0.421875
v -0.114258 0.195557 -0.569580
v 0.237549 0.036377 0.270264
v 0.237549 0.036377 -0.234619
v 0.237549 0.195313 -0.234619
v 0.237549 0.195312 0.270264
v -0.125488 0.003418 0.438721
v -0.125488 0.108398 0.486084
v -0.225098 0.108398 0.486084
v -0.225098 0.003418 0.438721
v -0.125488 0.108399 -0.449707
v -0.125488 0.003418 -0.415771
v -0.225098 0.003418 -0.415771
v -0.225098 0.108399 -0.449707
v -0.125488 0.108399 -0.449707
v -0.125488 0.108398 0.486084
v -0.125488 0.003418 0.438721
v -0.125488 0.003418 -0.415771
v -0.244385 0.253174 0.135986
v 0.244385 0.253174 0.135986
v 0.157959 0.471191 0.069580
v -0.157959 0.471191 0.069580
v 0.244385 0.193115 0.447754
v 0.244385 0.193115 -0.427490
v 0.244385 0.253174 0.135986
v 0.244385 0.253174 0.441162
v -0.244385 0.135742 0.533936
v 0.244385 0.135742 0.533936
v 0.244385 0.193115 0.447754
v -0.244385 0.193115 0.447754
v -0.244385 0.193115 0.447754
v -0.244385 0.253174 0.441162
v -0.244385 0.253174 0.135986
v -0.244385 0.193115 -0.427490
v 0.244385 0.253174 0.135986
v -0.244385 0.253174 0.135986
v -0.244385 0.253174 0.441162
v 0.244385 0.253174 0.441162
v -0.244385 0.193115 0.447754
v 0.244385 0.193115 0.447754
v 0.244385 0.253174 0.441162
v -0.244385 0.253174 0.441162
v -0.244385 0.193115 -0.427490
v -0.119629 0.193115 -0.427490
v -0.119629 0.130371 -0.528809
v -0.244385 0.130371 -0.528809
v 0.119629 0.193115 -0.427490
v 0.244385 0.193115 -0.427490
v 0.244385 0.130371 -0.528809
v 0.119629 0.130371 -0.528809
v -0.244385 0.193115 -0.427490
v -0.244385 0.130371 -0.528809
v -0.119629 0.130371 -0.528809
v -0.119629 0.193115 -0.427490
v 0.119629 0.193115 -0.427490
v 0.119629 0.130371 -0.528809
v 0.244385 0.130371 -0.528809
v 0.244385 0.193115 -0.427490
v -0.114258 0.195557 -0.569580
v 0.114258 0.195557 -0.569580
v 0.114258 0.086914 -0.569580
v -0.114258 0.086914 -0.569580
v 0.125488 0.003418 -0.415771
v 0.225098 0.003418 -0.415771
v 0.225098 0.003418 0.438721
v 0.125488 0.003418 0.438721
v 0.125488 0.206787 -0.411133
v 0.225098 0.206787 -0.411133
v 0.225098 0.108399 -0.449707
v 0.125488 0.108399 -0.449707
v 0.125488 0.108398 0.486084
v 0.225098 0.108398 0.486084
v 0.225098 0.206787 0.435547
v 0.125488 0.206787 0.435547
v 0.119629 0.012695 0.411865
v 0.119629 0.193115 0.439697
v 0.119629 0.135742 0.525879
v 0.119629 0.069092 0.500977
v 0.125488 0.003418 0.438721
v 0.225098 0.003418 0.438721
v 0.225098 0.108398 0.486084
v 0.125488 0.108398 0.486084
v 0.125488 0.108399 -0.449707
v 0.225098 0.108399 -0.449707
v 0.225098 0.003418 -0.415771
v 0.125488 0.003418 -0.415771
v 0.125488 0.108399 -0.449707
v 0.125488 0.003418 -0.415771
v 0.125488 0.003418 0.438721
v 0.125488 0.108398 0.486084
v 0.291016 0.151123 0.447754
v 0.291016 0.151123 -0.427490
v 0.244385 0.193115 -0.427490
v 0.244385 0.193115 0.447754
v -0.107666 0.273682 0.213379
v 0.107666 0.273682 0.213379
v 0.107666 0.415283 0.213379
v -0.107666 0.415283 0.213379
v -0.107666 0.273682 0.213379
v -0.107666 0.415283 0.213379
v 0.107666 0.415283 0.213379
v 0.107666 0.273682 0.213379
v 0.093262 0.229980 0.399170
v 0.102051 0.237305 0.381104
v 0.008789 0.340332 0.381104
v 0.000000 0.333008 0.399170
v -0.093262 0.229980 0.399170
v 0.000000 0.333008 0.399170
v -0.008789 0.340332 0.381104
v -0.102051 0.237305 0.381104
v 0.093262 0.229980 0.399170
v 0.000000 0.333008 0.399170
v 0.008789 0.340332 0.381104
v 0.102051 0.237305 0.381104
v -0.093262 0.229980 0.399170
v -0.102051 0.237305 0.381104
v -0.008789 0.340332 0.381104
v 0.000000 0.333008 0.399170
v -0.114258 0.195557 -0.421875
v 0.114258 0.195557 -0.421875
v 0.114258 0.195557 -0.569580
v -0.114258 0.195557 -0.569580
v -0.225098 0.003418 -0.415771
v -0.076904 0.108398 0.052979
v -0.225098 0.108399 -0.449707
v 0.076904 0.108398 0.052979
v 0.225098 0.108398 0.486084
v 0.225098 0.003418 0.438721
v 0.040771 0.504639 -0.077148
v -0.040771 0.504639 -0.077148
v 0.000000 0.429932 -0.097168
v 0.041748 0.369873 0.762695
v -0.041748 0.369873 0.762695
v 0.000000 0.315185 0.762695
v 0.000000 0.303223 0.699707
v 0.059326 0.380859 0.699707
v -0.059326 0.380859 0.699707
v 0.017578 0.484131 -0.080566
v -0.017578 0.484131 -0.080566
v 0.000000 0.341797 0.077393
v 0.265625 0.253174 -0.625000
v 0.244385 0.253174 0.135986
v 0.244385 0.193115 -0.427490
v -0.287598 0.253174 -0.042969
v -0.265625 0.253174 -0.625000
v -0.244385 0.253174 0.135986
v -0.244385 0.253174 0.135986
v -0.265625 0.253174 -0.625000
v -0.244385 0.193115 -0.427490
v 0.287598 0.253174 -0.042969
v 0.244385 0.253174 0.135986
v 0.265625 0.253174 -0.625000
v 0.040771 0.504639 -0.077148
v 0.000000 0.429932 -0.097168
v -0.040771 0.504639 -0.077148
vt 0.497070 -0.150391
vt 0.497070 -0.074219
vt 0.464844 -0.150391
vt 0.464844 -0.074219
vt 0.446289 -0.150391
vt 0.446289 -0.074219
vt 0.025391 -0.250000
vt 0.025391 -0.099609
vt 0.000000 -0.250000
vt 0.000000 -0.099609
vt 0.052734 -0.228516
vt 0.052734 -0.009766
vt 0.034180 -0.228516
vt 0.034180 -0.009766
vt 0.099609 -0.185547
vt 0.099609 -0.162109
vt 0.035156 -0.185547
vt 0.035156 -0.162109
vt 0.433594 -0.822266
vt 0.426758 -0.998047
vt 0.361328 -0.822266
vt 0.368164 -0.998047
vt 0.402344 -0.923828
vt 0.402344 -0.921875
vt 0.405273 -0.923828
vt 0.405273 -0.921875
vt 0.392578 -0.923828
vt 0.392578 -0.921875
vt 0.499023 -0.861328
vt 0.499023 -0.845703
vt 0.476562 -0.859375
vt 0.454102 -0.845703
vt 0.454102 -0.859375
vt 0.113281 -0.330078
vt 0.050781 -0.330078
vt 0.113281 -0.136719
vt 0.050781 -0.011719
vt 0.129883 -0.097656
vt 0.155273 -0.021484
vt 0.433594 -0.097656
vt 0.433594 -0.021484
vt 0.499023 -0.873047
vt 0.454102 -0.873047
vt 0.081055 -0.572266
vt 0.090820 -0.572266
vt 0.090820 -0.472656
vt 0.081055 -0.472656
vt -0.024414 -0.175781
vt 0.074219 -0.111328
vt 0.054688 -0.105469
vt 0.000000 -0.093750
vt 0.220703 0.339844
vt 0.279297 0.339844
vt 0.279297 0.064453
vt 0.220703 0.064453
vt -0.009766 -0.250000
vt -0.009766 -0.199219
vt 0.036133 -0.199219
vt 0.036133 -0.250000
vt 0.173828 -0.931641
vt 0.325195 -0.931641
vt 0.325195 -0.816406
vt 0.173828 -0.816406
vt 0.166992 -0.994141
vt 0.333008 -0.994141
vt 0.333008 -0.691406
vt 0.166992 -0.691406
vt 0.438477 -1.000000
vt 0.438477 1.000000
vt 0.559570 1.000000
vt 0.559570 -1.000000
vt 0.338867 -0.253906
vt 0.338867 -0.839844
vt 0.430664 -0.839844
vt 0.430664 -0.253906
vt 0.436523 -0.898438
vt 0.436523 -0.591797
vt 0.559570 -0.591797
vt 0.559570 -0.898438
vt 0.438477 -0.794922
vt 0.438477 -0.394531
vt 0.559570 -0.394531
vt 0.559570 -0.794922
vt 0.323242 -0.753906
vt 0.296875 -0.332031
vt -0.296875 -0.332031
vt -0.323242 -0.753906
vt 0.131836 -0.005859
vt 0.431641 -0.005859
vt 0.431641 -0.113281
vt 0.131836 -0.113281
vt 0.039062 -0.250000
vt 0.000000 -0.199219
vt 0.039062 -0.199219
vt 0.000000 -0.259766
vt 0.000000 -0.208984
vt 0.019531 -0.208984
vt 0.019531 -0.259766
vt 0.412109 -0.923828
vt 0.381836 -0.923828
vt 0.381836 -0.914062
vt 0.412109 -0.914062
vt -0.012695 -0.019531
vt 0.011719 -0.019531
vt 0.011719 -0.103516
vt -0.012695 -0.103516
vt 0.268555 0.021484
vt 0.336914 0.021484
vt 0.336914 0.232422
vt 0.268555 0.232422
vt 0.438477 -0.992188
vt 0.438477 -0.562500
vt 0.559570 -0.562500
vt 0.559570 -0.992188
vt 0.438477 -0.845703
vt 0.438477 -0.437500
vt 0.559570 -0.437500
vt 0.559570 -0.845703
vt 0.400391 -0.917969
vt 0.395508 -0.917969
vt 0.395508 -0.927734
vt 0.400391 -0.927734
vt -0.084961 -0.333984
vt 0.085938 -0.333984
vt 0.055664 -0.007812
vt -0.054688 -0.007812
vt 0.435547 -0.240234
vt -0.286133 -0.240234
vt 0.157227 -0.099609
vt 0.435547 -0.099609
vt -0.338867 -0.759766
vt 0.336914 -0.759766
vt 0.336914 -0.992188
vt -0.338867 -0.992188
vt 0.334961 -0.328125
vt -0.333984 -0.328125
vt -0.333984 -0.775391
vt 0.334961 -0.775391
vt -0.064453 -0.572266
vt 0.064453 -0.572266
vt 0.064453 -0.714844
vt -0.064453 -0.714844
vt 0.338867 -0.992188
vt 0.165039 -0.992188
vt 0.165039 -0.755859
vt 0.338867 -0.755859
vt -0.091797 -0.449219
vt 0.408203 -0.460938
vt 0.409180 -0.205078
vt -0.090820 -0.195312
vt 0.408203 -0.458984
vt -0.090820 -0.193359
vt -0.113281 0.230469
vt 0.113281 0.230469
vt 0.113281 0.558594
vt -0.113281 0.558594
vt -0.123047 -0.333984
vt 0.121094 -0.333984
vt 0.121094 -0.013672
vt -0.123047 -0.013672
vt 0.146484 -0.341797
vt 0.146484 -0.222656
vt 0.001953 -0.222656
vt 0.001953 -0.341797
vt 0.026367 -0.181641
vt 0.001953 -0.181641
vt 0.001953 -0.160156
vt 0.026367 -0.160156
vt -0.008789 -0.177734
vt 0.008789 -0.177734
vt 0.008789 -0.015625
vt -0.008789 -0.015625
vt 0.497070 -0.076172
vt 0.455078 -0.076172
vt 0.476562 -0.296875
vt 0.434570 -0.859375
vt 0.365234 -0.859375
vt 0.399414 -1.013672
vt 0.000000 -0.289062
vt -0.035156 -0.162109
vt 0.495117 -0.068359
vt 0.458008 -0.068359
vt 0.476562 -0.312500
vt 0.007812 -0.314453
vt 0.007812 -0.128906
vt 0.066406 -0.253906
vt 0.002930 -0.242188
vt 0.011719 -0.193359
vt 0.011719 -0.332031
usemtl kart_body
s off
f 33/9 34/10 35/11
f 34/10 36/12 35/11
f 35/11 36/12 37/13
f 36/12 38/14 37/13
f 37/13 38/14 39/11
f 38/14 40/12 39/11
f 39/11 40/12 41/9
f 40/12 42/10 41/9
f 43/10 44/9 45/12
f 44/9 46/11 45/12
f 45/12 46/11 47/14
f 46/11 48/13 47/14
f 47/14 48/13 49/12
f 48/13 50/11 49/12
f 49/12 50/11 51/10
f 50/11 52/9 51/10
f 53/15 54/16 55/17
f 54/16 56/18 55/17
f 55/17 56/18 57/15
f 56/18 58/16 57/15
f 57/15 58/16 59/15
f 58/16 60/16 59/15
f 61/19 62/20 63/19
f 62/20 64/20 63/19
f 63/19 64/20 65/21
f 64/20 66/22 65/21
f 65/21 66/22 67/19
f 66/22 68/20 67/19
f 69/23 70/24 71/23
f 70/24 72/24 71/23
f 71/23 72/24 73/25
f 72/24 74/26 73/25
f 73/25 74/26 75/23
f 74/26 76/24 75/23
f 77/27 78/28 79/29
f 78/28 80/30 79/29
f 79/29 80/30 81/27
f 80/30 82/28 81/27
f 81/27 82/28 83/29
f 82/28 84/30 83/29
f 85/31 86/32 87/33
f 86/32 88/34 87/33
f 87/33 88/34 89/35
f 88/34 90/36 89/35
f 91/37 92/38 93/39
f 92/38 94/40 93/39
f 93/39 94/40 95/41
f 96/41 97/40 98/39
f 97/40 99/38 98/39
f 98/39 99/38 100/37
f 101/42 102/43 103/44
f 102/43 104/45 103/44
f 105/45 106/43 107/44
f 106/43 108/42 107/44
f 109/46 110/47 111/48
f 110/47 112/49 111/48
f 113/46 114/48 115/47
f 114/48 116/49 115/47
f 117/37 118/39 119/50
f 118/39 120/51 119/50
f 121/41 122/39 123/51
f 122/39 124/50 123/51
f 125/52 126/53 127/54
f 127/54 128/55 125/52
f 129/56 130/57 131/58
f 131/58 132/59 129/56
f 133/60 134/61 135/62
f 135/62 136/63 133/60
f 137/64 138/65 139/66
f 139/66 140/67 137/64
f 141/68 142/69 143/70
f 143/70 144/71 141/68
f 145/72 146/73 147/74
f 147/74 148/75 145/72
f 149/76 150/77 151/78
f 151/78 152/79 149/76
f 153/80 154/81 155/82
f 155/82 156/83 153/80
f 157/84 158/85 159/86
f 159/86 160/87 157/84
f 161/88 162/89 163/90
f 163/90 164/91 161/88
f 165/92 166/93 167/94
f 167/94 168/95 165/92
f 169/96 170/97 171/98
f 171/98 172/99 169/96
f 173/100 174/17 175/101
f 175/101 176/102 173/100
f 177/17 178/100 179/102
f 179/102 180/101 177/17
f 181/103 182/104 183/105
f 183/105 184/106 181/103
f 185/107 186/108 187/109
f 187/109 188/110 185/107
f 189/111 190/112 191/113
f 191/113 192/114 189/111
f 193/115 194/116 195/117
f 195/117 196/118 193/115
f 197/116 198/115 199/118
f 199/118 200/117 197/116
f 201/73 202/72 203/75
f 203/75 204/74 201/73
f 205/119 206/120 207/121
f 207/121 208/122 205/119
f 209/123 210/124 211/125
f 211/125 212/126 209/123
f 213/127 214/128 215/129
f 215/129 216/130 213/127
f 217/131 218/132 219/133
f 219/133 220/134 217/131
f 221/135 222/136 223/137
f 223/137 224/138 221/135
f 225/139 226/140 227/141
f 227/141 228/142 225/139
f 229/135 230/138 231/137
f 231/137 232/136 229/135
f 233/143 234/144 235/145
f 235/145 236/146 233/143
f 237/147 238/148 239/149
f 239/149 240/150 237/147
f 241/151 242/152 243/153
f 243/153 244/154 241/151
f 245/152 246/151 247/154
f 247/154 248/153 245/152
f 249/155 250/156 251/157
f 251/157 252/158 249/155
f 253/155 254/159 255/157
f 255/157 256/160 253/155
f 257/161 258/162 259/163
f 259/163 260/164 257/161
f 261/76 262/79 263/78
f 263/78 264/77 261/76
f 265/84 266/87 267/86
f 267/86 268/85 265/84
f 269/88 270/91 271/90
f 271/90 272/89 269/88
f 273/57 274/56 275/59
f 275/59 276/58 273/57
f 277/119 278/122 279/121
f 279/121 280/120 277/119
f 281/123 282/126 283/125
f 283/125 284/124 281/123
f 285/127 286/130 287/129
f 287/129 288/128 285/127
f 289/99 290/98 291/97
f 291/97 292/96 289/99
f 293/165 294/166 295/167
f 295/167 296/168 293/165
f 297/165 298/168 299/167
f 299/167 300/166 297/165
f 301/169 302/170 303/171
f 303/171 304/172 301/169
f 305/169 306/172 307/171
f 307/171 308/170 305/169
f 309/173 310/174 311/175
f 311/175 312/176 309/173
f 313/173 314/176 315/175
f 315/175 316/174 313/173
f 317/177 318/178 319/179
f 319/179 320/180 317/177
f 321/50 322/39 323/37
f 324/39 325/41 326/51
f 327/181 328/182 329/183
f 330/184 331/185 332/186
f 333/187 334/26 335/188
f 336/189 337/190 338/191
f 339/192 340/193 341/194
f 342/195 343/196 344/197
f 345/193 346/192 347/194
f 348/195 349/197 350/196
f 351/181 352/183 353/182
o polygon2
v 0.282715 0.266846 0.002441
v 0.272705 0.379150 0.002441
v 0.257080 0.289307 0.097412
v 0.259277 0.266846 0.097412
v -0.272705 0.379150 0.002441
v -0.282715 0.266846 0.002441
v -0.259277 0.266846 0.097412
v -0.257080 0.289307 0.097412
v -0.272705 0.379150 0.002441
v -0.257080 0.289307 0.097412
v -0.199463 0.379150 0.097412
v 0.199463 0.379150 0.097412
v 0.257080 0.289307 0.097412
v 0.272705 0.379150 0.002441
vt 1.000000 -1.000000
vt 1.000000 0.000000
vt 0.000000 -0.798828
vt 0.000000 -1.000000
vt 0.000000 0.000000
vt 1.000000 -0.798828
usemtl kart_emblem
s off
f 354/198 355/199 356/200
f 357/201 354/198 356/200
f 358/202 359/201 360/198
f 360/198 361/203 358/202
f 362/202 363/203 364/199
f 365/202 366/200 367/199
